…
      # outputs a count of the number of "trues"
      sum(unlist(text) %in% unlist(sentiment))
    }

    # Remove the stop words and save in new column
    #yelp_train$prunedtext <- lapply(yelp_train$text, FUN = dropStopwords)


    get_sentiments("nrc") # we chose this one for now, can consider adding

    ## # A tibble: 13,901 x 2
    ##    word        sentiment
    ##    <chr>       <chr>    
    ##  1 abacus      trust    
    ##  2 abandon     fear     
    ##  3 abandon     negative 
    ##  4 abandon     sadness  
    ##  5 abandoned   anger    
    ##  6 abandoned   fear     
    ##  7 abandoned   negative 
    ##  8 abandoned   sadness  
    ##  9 abandonment anger    
    ## 10 abandonment fear     
    ## # … with 13,891 more rows

    # other sentiment lexicons to increase our # of predictors
    get_sentiments("afinn")

    ## # A tibble: 2,477 x 2
    ##    word       value
    ##    <chr>      <dbl>
    ##  1 abandon       -2
    ##  2 abandoned     -2
    ##  3 abandons      -2
    ##  4 abducted      -2
    ##  5 abduction     -2
    ##  6 abductions    -2
    ##  7 abhor         -3
    ##  8 abhorred      -3
    ##  9 abhorrent     -3
    ## 10 abhors        -3
    ## # … with 2,467 more rows

    get_sentiments("loughran")

    ## # A tibble: 4,150 x 2
    ##    word         sentiment
    ##    <chr>        <chr>    
    ##  1 abandon      negative 
    ##  2 abandoned    negative 
    ##  3 abandoning   negative 
    ##  4 abandonment  negative 
    ##  5 abandonments negative 
    ##  6 abandons     negative 
    ##  7 abdicated    negative 
    ##  8 abdicates    negative 
    ##  9 abdicating   negative 
    ## 10 abdication   negative 
    ## # … with 4,140 more rows
…
